…
schooldatacleaned_math <- schooldatacleaned %>% 
  select(year,"state.code","income.less.than.20k.math", "income.between.20.40k.math", "income.between.40.60k.math", "income.between.60.80k.math", "income.between.80.100k.math", "income.more.than.100k.math") %>%
  pivot_longer(c(income.less.than.20k.math, income.between.20.40k.math, income.between.40.60k.math, income.between.60.80k.math, income.between.80.100k.math, income.more.than.100k.math), 
               names_to = "income.bracket.math", 
               values_to = "average.math.score.of.bracket", 
               values_drop_na = TRUE) %>%
  mutate(income.bracket = str_remove(income.bracket.math, ".math")) %>%
  select("state.code", "income.bracket","average.math.score.of.bracket") 
schooldatacleaned_math

## # A tibble: 3,462 × 3
##    state.code income.bracket         average.math.score.of.bracket
##    <chr>      <chr>                                          <dbl>
##  1 AL         income.less.than.20k                             462
##  2 AL         income.between.20.40k                            513
##  3 AL         income.between.40.60k                            539
##  4 AL         income.between.60.80k                            550
##  5 AL         income.between.80.100k                           566
##  6 AL         income.more.than.100k                            588
##  7 AK         income.less.than.20k                             464
##  8 AK         income.between.20.40k                            492
##  9 AK         income.between.40.60k                            517
## 10 AK         income.between.60.80k                            513
## # … with 3,452 more rows

schooldatacleaned_verbal <- schooldatacleaned %>% 
  select(year,"state.code","income.less.than.20k.verbal", "income.between.20.40k.verbal", "income.between.40.60k.verbal", "income.between.60.80k.verbal", "income.between.80.100k.verbal", "income.more.than.100k.verbal") %>%
  pivot_longer(c(income.less.than.20k.verbal, income.between.20.40k.verbal, income.between.40.60k.verbal, income.between.60.80k.verbal, income.between.80.100k.verbal, income.more.than.100k.verbal), 
               names_to = "income.bracket.verbal", 
               values_to = "average.verbal.score.of.bracket", 
               values_drop_na = TRUE) %>%
  mutate(income.bracket = str_remove(income.bracket.verbal, ".verbal")) %>%
  select("state.code", "income.bracket", "average.verbal.score.of.bracket")
schooldatacleaned_verbal

## # A tibble: 3,462 × 3
##    state.code income.bracket         average.verbal.score.of.bracket
##    <chr>      <chr>                                            <dbl>
##  1 AL         income.less.than.20k                               474
##  2 AL         income.between.20.40k                              527
##  3 AL         income.between.40.60k                              551
##  4 AL         income.between.60.80k                              564
##  5 AL         income.between.80.100k                             577
##  6 AL         income.more.than.100k                              590
##  7 AK         income.less.than.20k                               467
##  8 AK         income.between.20.40k                              500
##  9 AK         income.between.40.60k                              522
## 10 AK         income.between.60.80k                              519
## # … with 3,452 more rows

schooldatacleaned_math$average.verbal.score.of.bracket <- schooldatacleaned_verbal$average.verbal.score.of.bracket
schooldatacleaned <- schooldatacleaned_math %>% 
  bind_cols(schooldatacleaned_verbal$average.verbal.score.of.bracket) %>%
  select("state.code", "income.bracket", "average.math.score.of.bracket", "average.verbal.score.of.bracket")

## New names:
## • `` -> `...5`

schooldatacleaned

## # A tibble: 3,462 × 4
##    state.code income.bracket         average.math.score.of.bracket average.ver…¹
##    <chr>      <chr>                                          <dbl>         <dbl>
##  1 AL         income.less.than.20k                             462           474
##  2 AL         income.between.20.40k                            513           527
##  3 AL         income.between.40.60k                            539           551
##  4 AL         income.between.60.80k                            550           564
##  5 AL         income.between.80.100k                           566           577
##  6 AL         income.more.than.100k                            588           590
##  7 AK         income.less.than.20k                             464           467
##  8 AK         income.between.20.40k                            492           500
##  9 AK         income.between.40.60k                            517           522
## 10 AK         income.between.60.80k                            513           519
## # … with 3,452 more rows, and abbreviated variable name
## #   ¹​average.verbal.score.of.bracket

# this needs to be fixed — use something other than geom_col
sixstates <- c("MD", "NJ", "MA", "AR", "WV", "MS")
schooldata6 <- schooldata %>% 
  filter(State.Code %in% sixstates) %>% 
  mutate(Total.Score = Total.Math + Total.Verbal) %>% 
  select("State.Code", "Total.Score") %>% 
  group_by(State.Code) %>% 
  transmute(avg.total.score = mean(Total.Score))
schooldata6

## # A tibble: 64 × 2
## # Groups:   State.Code [6]
##    State.Code avg.total.score
##    <chr>                <dbl>
##  1 AR                   1139.
##  2 MD                   1002 
##  3 MA                   1042.
##  4 MS                   1123.
##  5 NJ                   1014.
##  6 AR                   1139.
##  7 MD                   1002 
##  8 MA                   1042.
##  9 MS                   1123.
## 10 NJ                   1014.
## # … with 54 more rows
…
Our first model takes the three U.S. states with the highest median household income and the three with the lowest and plots them against their average SAT scores. We can see that this plot does not support our conjecture that higher family incomes lead to higher SAT scores, as the scores for Arkansas and Mississippi, two of the states with the lowest median household income in the country, have higher average SAT scores than all three states with the highest median household incomes.

# this needs to be fixed — use something other than geom_col
# Big Picture page idea: put the lowest and highest brackets
schooldatacleaned <- schooldatacleaned %>% 
  mutate(average.total.score.of.bracket = average.math.score.of.bracket + average.verbal.score.of.bracket) %>% 
  select("state.code", "income.bracket", "average.total.score.of.bracket") %>% 
  group_by(income.bracket) 
schooldatacleaned

## # A tibble: 3,462 × 3
## # Groups:   income.bracket [6]
##    state.code income.bracket         average.total.score.of.bracket
##    <chr>      <chr>                                           <dbl>
##  1 AL         income.less.than.20k                              936
##  2 AL         income.between.20.40k                            1040
##  3 AL         income.between.40.60k                            1090
##  4 AL         income.between.60.80k                            1114
##  5 AL         income.between.80.100k                           1143
##  6 AL         income.more.than.100k                            1178
##  7 AK         income.less.than.20k                              931
##  8 AK         income.between.20.40k                             992
##  9 AK         income.between.40.60k                            1039
## 10 AK         income.between.60.80k                            1032
## # … with 3,452 more rows
…
