…
incomedata <- newdata_1 %>% select(state.name, total.score, income.between.20.40k, income.between.40.60k,
                                   income.between.60.80k, income.between.80.100k, income.less.than.20k,
                                   income.more.than.100k)

newdata_inc <- incomedata %>% crossing(censusdata)
newdata_inc

## # A tibble: 41,595,930 × 14
##    state…¹ total…² incom…³ incom…⁴ incom…⁵ incom…⁶ incom…⁷ incom…⁸ State…⁹ White
##    <chr>     <dbl>   <dbl>   <dbl>   <dbl>   <dbl>   <dbl>   <dbl> <chr>   <dbl>
##  1 Alabama    1073     932    1019    1041    1064     864    1141 Alabama   0  
##  2 Alabama    1073     932    1019    1041    1064     864    1141 Alabama   0  
##  3 Alabama    1073     932    1019    1041    1064     864    1141 Alabama   0  
##  4 Alabama    1073     932    1019    1041    1064     864    1141 Alabama   0  
##  5 Alabama    1073     932    1019    1041    1064     864    1141 Alabama   0  
##  6 Alabama    1073     932    1019    1041    1064     864    1141 Alabama   0  
##  7 Alabama    1073     932    1019    1041    1064     864    1141 Alabama   0  
##  8 Alabama    1073     932    1019    1041    1064     864    1141 Alabama   0  
##  9 Alabama    1073     932    1019    1041    1064     864    1141 Alabama   0.2
## 10 Alabama    1073     932    1019    1041    1064     864    1141 Alabama   0.3
## # … with 41,595,920 more rows, 4 more variables: Black <dbl>, Asian <dbl>,
## #   Native <dbl>, Pacific <dbl>, and abbreviated variable names ¹​state.name,
## #   ²​total.score, ³​income.between.20.40k, ⁴​income.between.40.60k,
## #   ⁵​income.between.60.80k, ⁶​income.between.80.100k, ⁷​income.less.than.20k,
## #   ⁸​income.more.than.100k, ⁹​State.Name
…
